#FIG 3.2  Produced by xfig version 3.2.5c
Landscape
Center
Metric
A4      
100.00
Single
-2
1200 2
2 2 0 1 0 7 50 -1 -1 0.000 0 0 -1 0 0 5
	 900 180 5400 180 5400 2700 900 2700 900 180
2 1 0 1 0 7 50 -1 -1 0.000 0 0 -1 1 0 4
	1 1 1.00 60.00 120.00
	 133 1431 583 1341 403 1521 853 1431
2 1 1 1 12 7 50 -1 -1 4.000 0 0 -1 1 0 2
	1 1 1.00 60.00 120.00
	 945 1440 3060 1440
3 0 0 1 1 7 50 -1 -1 0.000 0 1 0 8
	1 1 1.00 60.00 120.00
	 1800 990 1710 1080 1890 1260 1710 1440 1890 1620 1710 1800
	 1800 1890 1800 2160
	 0.000 1.000 1.000 1.000 1.000 1.000 1.000 0.000
3 0 0 1 12 7 50 -1 -1 0.000 0 1 0 8
	1 1 1.00 60.00 120.00
	 3150 990 3060 1080 3240 1260 3060 1440 3240 1620 3060 1800
	 3150 1890 3150 2160
	 0.000 1.000 1.000 1.000 1.000 1.000 1.000 0.000
3 0 0 1 18 7 50 -1 -1 0.000 0 1 0 8
	1 1 1.00 60.00 120.00
	 4500 990 4410 1080 4590 1260 4410 1440 4590 1620 4410 1800
	 4500 1890 4500 2160
	 0.000 1.000 1.000 1.000 1.000 1.000 1.000 0.000
4 1 0 50 -1 16 8 0.0000 4 105 525 540 1215 SIGABC\001
4 0 0 50 -1 17 8 0.0000 4 105 660 990 2610 Process\001
4 0 0 50 -1 17 8 0.0000 4 135 2370 1080 405 Action for SIGABC = f(int signo) {...}\001
4 1 1 50 -1 17 8 0.0000 4 135 975 1800 900 blocked SIGABC\001
4 1 1 50 -1 17 8 0.0000 4 105 510 1800 2295 thread 1\001
4 1 12 50 -1 17 8 0.0000 4 105 1065 3150 900 authorized SIGABC\001
4 0 12 50 -1 16 8 0.0000 4 105 600 3240 1575 execution\001
4 0 12 50 -1 16 8 0.0000 4 135 330 3240 1740 of f()\001
4 1 12 50 -1 17 8 0.0000 4 105 510 3150 2295 thread 2\001
4 1 18 50 -1 17 8 0.0000 4 135 975 4500 900 blocked SIGABC\001
4 1 18 50 -1 17 8 0.0000 4 105 510 4500 2295 thread 3\001
