#FIG 3.2  Produced by xfig version 3.2.7b
Landscape
Center
Metric
A4
100.00
Single
-2
1200 2
6 2880 855 3825 1170
1 1 0 1 0 11 51 -1 36 0.000 1 0.0000 3330 990 450 135 3330 990 3780 990
1 1 0 1 0 0 52 -1 20 0.000 1 0.0000 3375 1035 450 135 3375 1035 3825 1035
4 1 0 50 -1 16 8 0.0000 4 105 150 3330 1035 sh\001
-6
6 2430 1440 3375 1755
1 1 0 1 0 11 51 -1 36 0.000 1 0.0000 2880 1575 450 135 2880 1575 3330 1575
1 1 0 1 0 0 52 -1 20 0.000 1 0.0000 2925 1620 450 135 2925 1620 3375 1620
4 1 0 50 -1 16 8 0.0000 4 90 840 2880 1620 cat secret.txt\001
-6
6 180 450 990 2160
3 1 0 1 0 7 50 -1 -1 0.000 0 0 0 7
	 315 810 405 990 540 990 675 855 675 585 540 450
	 405 450
	 1.000 1.000 1.000 1.000 1.000 1.000 1.000
3 0 0 1 0 7 50 -1 -1 0.000 0 0 0 4
	 495 990 720 1305 720 1665 360 2160
	 0.000 1.000 1.000 0.000
3 0 0 1 0 7 50 -1 -1 0.000 0 0 0 3
	 675 1620 810 1800 855 2160
	 0.000 1.000 0.000
3 0 0 1 0 7 50 -1 -1 0.000 0 0 0 4
	 180 1035 450 1260 855 1260 990 765
	 0.000 1.000 1.000 0.000
-6
3 1 0 1 0 7 50 -1 -1 0.000 0 0 0 6
	 4230 450 4095 630 4140 900 4275 990 4365 810 4365 540
	 1.000 1.000 1.000 1.000 1.000 1.000
3 0 0 1 0 7 50 -1 -1 0.000 0 0 0 3
	 4185 1755 4140 1890 3960 2160
	 0.000 1.000 0.000
3 0 0 1 0 7 50 -1 -1 0.000 0 0 0 3
	 4320 1755 4320 1890 4455 2160
	 0.000 1.000 0.000
3 2 0 1 0 7 50 -1 -1 0.000 1 0 0 4
	 4005 1800 4185 1755 4365 1755 4500 1800
	 0.000 -1.000 -1.000 0.000
3 0 0 1 0 7 50 -1 -1 0.000 1 0 0 3
	 4230 945 4185 1260 4005 1800
	 0.000 1.000 0.000
3 0 0 1 0 7 50 -1 -1 0.000 1 0 0 3
	 3825 810 3915 1080 4185 1215
	 0.000 1.000 0.000
3 0 0 1 0 7 50 -1 -1 0.000 0 0 0 3
	 4275 1215 4500 1125 4680 945
	 0.000 1.000 0.000
3 0 0 1 0 7 50 -1 -1 0.000 1 0 0 4
	 4230 945 4275 1215 4365 1485 4500 1800
	 0.000 1.000 1.000 0.000
3 0 0 1 0 7 50 -1 -1 0.000 1 1 0 3
	1 1 1.00 45.00 90.00
	 3330 1170 3285 1305 3060 1440
	 0.000 1.000 0.000
3 0 0 1 19 4 50 -1 -1 0.000 1 1 0 3
	1 1 1.00 45.00 90.00
	 2430 1575 1800 1530 1440 1350
	 0.000 1.000 0.000
3 0 0 1 0 7 50 -1 -1 0.000 0 0 0 4
	 1395 720 1350 990 1170 1305 1125 1395
	 0.000 1.000 1.000 0.000
3 0 0 1 0 7 50 -1 -1 0.000 0 0 0 3
	 1395 720 1530 900 1575 1035
	 0.000 1.000 0.000
3 0 0 1 0 7 50 -1 -1 0.000 0 0 0 3
	 1575 1035 1485 1305 1215 1620
	 0.000 1.000 0.000
3 0 0 1 0 7 50 -1 -1 0.000 0 0 0 3
	 1125 1395 1215 1485 1215 1620
	 0.000 1.000 0.000
4 1 0 50 -1 16 10 0.0000 4 120 270 4230 2340 Alice\001
4 0 1 50 -1 16 7 0.0000 4 90 195 3375 1305 fork\001
4 0 1 50 -1 16 7 0.0000 4 75 240 3285 1440 exec\001
4 1 0 50 -1 16 8 0.0000 4 90 600 1395 540 secret.txt\001
4 1 0 50 -1 16 10 0.0000 4 120 270 630 2340 Bob\001
4 1 0 50 -1 16 8 0.0000 4 75 555 1395 675 rw- --- ---\001
4 0 19 50 -1 16 7 0.0000 4 120 1065 1620 1395 open ("secret.txt", ...)\001
4 0 19 50 -1 16 7 0.0000 4 90 825 1440 1665 errno = EPERM\001
