#FIG 3.2  Produced by xfig version 3.2.7b
Portrait
Center
Metric
A4
100.00
Single
-3
1200 2
6 2025 2205 3375 2880
2 2 0 1 0 0 55 -1 20 0.000 0 0 -1 0 0 5
	 2070 2430 2790 2430 2790 2610 2070 2610 2070 2430
2 2 0 1 0 11 51 0 36 0.000 0 0 7 0 0 5
	 2025 2385 2745 2385 2745 2565 2025 2565 2025 2385
3 0 0 1 0 7 50 0 -1 0.000 0 1 0 5
	1 1 1.00 60.00 120.00
	 2520 2475 3105 2475 3285 2475 3330 2655 3375 2880
	 0.000 1.000 1.000 1.000 0.000
4 1 0 50 0 17 8 0.0000 6 105 285 2385 2340 CR3\001
-6
6 6525 5040 6975 5400
2 1 0 1 0 7 50 0 -1 0.000 0 0 -1 0 0 2
	 6750 5040 6750 5220
4 0 0 50 0 16 8 0.0000 6 90 150 6795 5400 11\001
4 2 0 50 0 16 8 0.0000 6 105 150 6705 5400 12\001
-6
2 2 0 1 0 1 51 -1 36 0.000 0 0 -1 0 0 5
	 900 5040 8100 5040 8100 5220 900 5220 900 5040
2 2 0 1 0 0 55 -1 20 0.000 0 0 -1 0 0 5
	 945 5085 8145 5085 8145 5265 945 5265 945 5085
2 2 0 1 0 2 51 -1 36 0.000 0 0 -1 0 0 5
	 900 1620 8100 1620 8100 1800 900 1800 900 1620
2 2 0 1 0 0 55 -1 20 0.000 0 0 -1 0 0 5
	 945 1665 8145 1665 8145 1845 945 1845 945 1665
2 1 0 1 0 7 50 0 -1 0.000 0 0 -1 0 0 2
	 6750 1620 6750 1800
2 1 0 1 0 7 50 0 -1 0.000 0 0 -1 0 0 2
	 5715 1620 5715 1800
2 1 0 1 0 7 50 0 -1 0.000 0 0 -1 0 0 2
	 4680 1620 4680 1800
2 1 0 1 0 7 50 0 -1 0.000 0 0 -1 0 0 2
	 3645 1620 3645 1800
2 1 0 1 0 7 50 0 -1 0.000 0 0 -1 0 0 2
	 2610 1620 2610 1800
2 1 0 1 0 7 50 0 -1 0.000 0 0 -1 0 0 2
	 3375 3330 3915 3330
2 1 0 1 0 7 50 0 -1 0.000 0 0 -1 0 0 2
	 3375 3510 3915 3510
2 1 0 1 0 7 50 0 -1 0.000 0 0 -1 0 0 2
	 3555 2880 3555 4140
2 2 0 1 0 0 55 -1 20 0.000 0 0 -1 0 0 5
	 3420 2925 3960 2925 3960 4185 3420 4185 3420 2925
2 1 0 1 0 7 50 0 -1 0.000 0 0 -1 0 0 2
	 4410 3330 4950 3330
2 1 0 1 0 7 50 0 -1 0.000 0 0 -1 0 0 2
	 4410 3510 4950 3510
2 1 0 1 0 7 50 0 -1 0.000 0 0 -1 0 0 2
	 4590 2880 4590 4140
2 2 0 1 0 0 55 -1 20 0.000 0 0 -1 0 0 5
	 4455 2925 4995 2925 4995 4185 4455 4185 4455 2925
2 1 0 1 0 7 50 0 -1 0.000 0 0 -1 0 0 2
	 5445 3330 5985 3330
2 1 0 1 0 7 50 0 -1 0.000 0 0 -1 0 0 2
	 5445 3510 5985 3510
2 1 0 1 0 7 50 0 -1 0.000 0 0 -1 0 0 2
	 5625 2880 5625 4140
2 2 0 1 0 0 55 -1 20 0.000 0 0 -1 0 0 5
	 5490 2925 6030 2925 6030 4185 5490 4185 5490 2925
2 1 0 1 0 7 50 0 -1 0.000 0 0 -1 0 0 2
	 6480 3330 7020 3330
2 1 0 1 0 7 50 0 -1 0.000 0 0 -1 0 0 2
	 6480 3510 7020 3510
2 1 0 1 0 7 50 0 -1 0.000 0 0 -1 0 0 2
	 6660 2880 6660 4140
2 2 0 1 0 0 55 -1 20 0.000 0 0 -1 0 0 5
	 6525 2925 7065 2925 7065 4185 6525 4185 6525 2925
2 2 0 1 0 19 51 0 37 0.000 0 0 -1 0 0 5
	 3375 2880 3915 2880 3915 4140 3375 4140 3375 2880
2 2 0 1 0 19 51 0 37 0.000 0 0 7 0 0 5
	 4410 2880 4950 2880 4950 4140 4410 4140 4410 2880
2 2 0 1 0 19 51 0 37 0.000 0 0 7 0 0 5
	 5445 2880 5985 2880 5985 4140 5445 4140 5445 2880
2 2 0 1 0 19 51 0 37 0.000 0 0 7 0 0 5
	 6480 2880 7020 2880 7020 4140 6480 4140 6480 2880
3 0 0 1 0 7 50 0 -1 0.000 0 1 0 2
	1 1 1.00 60.00 120.00
	 7470 1800 7470 5040
	 0.000 0.000
3 0 0 1 0 7 50 -1 -1 0.000 0 1 0 5
	1 1 1.00 60.00 120.00
	 3150 1800 3150 3330 3150 3420 3195 3420 3375 3420
	 0.000 1.000 1.000 1.000 0.000
3 0 0 1 0 7 50 -1 -1 0.000 0 1 0 5
	1 1 1.00 60.00 120.00
	 5220 1800 5220 3330 5220 3420 5265 3420 5445 3420
	 0.000 1.000 1.000 1.000 0.000
3 0 0 1 0 7 50 -1 -1 0.000 0 1 0 5
	1 1 1.00 60.00 120.00
	 4185 1800 4185 3330 4185 3420 4230 3420 4410 3420
	 0.000 1.000 1.000 1.000 0.000
3 0 0 1 0 7 50 -1 -1 0.000 0 1 0 5
	1 1 1.00 60.00 120.00
	 6255 1800 6255 3330 6255 3420 6300 3420 6480 3420
	 0.000 1.000 1.000 1.000 0.000
3 0 0 1 0 7 50 0 -1 0.000 0 1 0 10
	1 1 1.00 60.00 120.00
	 3735 3420 3960 3420 4050 3420 4050 3195 4050 2745 4050 2610
	 4140 2610 4275 2610 4365 2610 4410 2880
	 0.000 1.000 1.000 1.000 1.000 1.000 1.000 1.000
	 1.000 0.000
3 0 0 1 0 7 50 -1 -1 0.000 0 1 0 11
	1 1 1.00 60.00 120.00
	 6885 3420 7200 3420 7290 3420 7290 3600 7290 4320 7290 4500
	 7110 4500 3960 4500 3780 4500 3780 4680 3780 5040
	 0.000 1.000 1.000 1.000 1.000 1.000 1.000 1.000
	 1.000 1.000 0.000
3 0 0 1 0 7 50 0 -1 0.000 0 1 0 10
	1 1 1.00 60.00 120.00
	 4770 3420 4995 3420 5085 3420 5085 3195 5085 2745 5085 2610
	 5175 2610 5310 2610 5400 2610 5445 2880
	 0.000 1.000 1.000 1.000 1.000 1.000 1.000 1.000
	 1.000 0.000
3 0 0 1 0 7 50 0 -1 0.000 0 1 0 10
	1 1 1.00 60.00 120.00
	 5805 3420 6030 3420 6120 3420 6120 3195 6120 2745 6120 2610
	 6210 2610 6345 2610 6435 2610 6480 2880
	 0.000 1.000 1.000 1.000 1.000 1.000 1.000 1.000
	 1.000 0.000
4 2 0 50 0 16 8 0.0000 6 105 75 8055 5400 0\001
4 1 0 50 0 19 8 0.0000 6 135 1230 4545 4950 Adresse physique\001
4 0 0 50 0 16 8 0.0000 6 105 150 945 5400 63\001
4 2 0 50 0 16 8 0.0000 6 105 75 8055 1980 0\001
4 1 0 50 0 19 8 0.0000 6 135 1125 4500 1530 Adresse logique\001
4 0 0 50 0 16 8 0.0000 6 90 150 6795 1980 11\001
4 2 0 50 0 16 8 0.0000 6 105 150 6705 1980 12\001
4 0 0 50 0 16 8 0.0000 6 105 150 5760 1980 20\001
4 2 0 50 0 16 8 0.0000 6 105 150 5670 1980 21\001
4 0 0 50 0 16 8 0.0000 6 105 150 4725 1980 29\001
4 2 0 50 0 16 8 0.0000 6 105 150 4635 1980 30\001
4 0 0 50 0 16 8 0.0000 6 105 150 3690 1980 38\001
4 2 0 50 0 16 8 0.0000 6 105 150 3600 1980 39\001
4 2 0 50 0 16 8 0.0000 6 105 150 2565 1980 48\001
4 0 0 50 0 16 8 0.0000 6 105 150 2655 1980 47\001
4 0 0 50 0 16 8 0.0000 6 105 150 945 1980 63\001
4 2 0 50 0 16 6 0.0000 6 75 60 3330 2970 0\001
4 1 0 50 0 17 6 0.0000 6 120 120 3465 2835 flg\001
4 1 0 50 0 17 6 0.0000 6 90 390 3735 2835 adresse\001
4 1 0 50 0 17 6 0.0000 6 75 120 3735 4320 52\001
4 1 0 50 0 17 6 0.0000 6 75 120 3465 4320 12\001
4 2 0 50 0 16 6 0.0000 6 75 60 4365 2970 0\001
4 1 0 50 0 17 6 0.0000 6 120 120 4500 2835 flg\001
4 1 0 50 0 17 6 0.0000 6 90 390 4770 2835 adresse\001
4 1 0 50 0 17 6 0.0000 6 75 120 4770 4320 52\001
4 1 0 50 0 17 6 0.0000 6 75 120 4500 4320 12\001
4 2 0 50 0 16 6 0.0000 6 75 60 5400 2970 0\001
4 1 0 50 0 17 6 0.0000 6 120 120 5535 2835 flg\001
4 1 0 50 0 17 6 0.0000 6 90 390 5805 2835 adresse\001
4 1 0 50 0 17 6 0.0000 6 75 120 5805 4320 52\001
4 1 0 50 0 17 6 0.0000 6 75 120 5535 4320 12\001
4 2 0 50 0 16 6 0.0000 6 75 60 6435 2970 0\001
4 1 0 50 0 17 6 0.0000 6 120 120 6570 2835 flg\001
4 1 0 50 0 17 6 0.0000 6 90 390 6840 2835 adresse\001
4 1 0 50 0 17 6 0.0000 6 75 120 6840 4320 52\001
4 1 0 50 0 17 6 0.0000 6 75 120 6570 4320 12\001
