#FIG 3.2  Produced by xfig version 3.2.8b
Landscape
Center
Metric
A4
100.00
Single
-2
1200 2
0 32 #c6b797
0 33 #eff8ff
0 34 #dccba6
0 35 #404040
0 36 #808080
0 37 #c0c0c0
0 38 #e0e0e0
0 39 #8e8f8e
0 40 #aaaaaa
0 41 #555555
0 42 #bebebe
0 43 #515151
0 44 #e7e3e7
0 45 #000049
0 46 #797979
0 47 #303430
0 48 #414141
0 49 #c7b696
0 50 #8e8e8e
0 51 #414541
0 52 #8e8e8e
0 53 #cccccc
0 54 #868286
0 55 #c7c3c7
0 56 #444444
0 57 #868686
0 58 #c7c7c7
0 59 #e7e7e7
0 60 #f7f7f7
0 61 #9e9e9e
0 62 #717571
0 63 #effbff
0 64 #666666
0 65 #909090
0 66 #e6e4ce
0 67 #9b9b9b
0 68 #ce9100
0 69 #f762aa
0 70 #7070ff
0 71 #5f5f5f
0 72 #e2e2ee
0 73 #94949a
0 74 #dbdbdb
0 75 #a1a1b7
0 76 #9c0000
0 77 #000000
0 78 #ffffff
0 79 #dd9d93
0 80 #f1ece0
0 81 #c3c3c3
0 82 #e2c8a8
0 83 #e1e1e1
0 84 #d2d2d2
0 85 #ededed
0 86 #da7a1a
0 87 #f1e41a
0 88 #887dc2
0 89 #d6d6d6
0 90 #8c8ca5
0 91 #4a4a4a
0 92 #5a5a5a
0 93 #636363
0 94 #b79b73
0 95 #4193ff
0 96 #bf703b
0 97 #db7700
0 98 #dab800
0 99 #006400
0 100 #5a6b3b
0 101 #d3d3d3
0 102 #8e8ea4
0 103 #f3b95d
0 104 #89996b
0 105 #646464
0 106 #b7e6ff
0 107 #86c0ec
0 108 #bdbdbd
0 109 #d39552
0 110 #98d2fe
0 111 #8c6b6b
0 112 #8c9c6b
0 113 #f76b00
0 114 #5a6b39
0 115 #8c9c6b
0 116 #8c9c7b
0 117 #184a18
0 118 #adadad
0 119 #f7bd5a
0 120 #636b9c
0 121 #de0000
0 122 #adadad
0 123 #f3eed3
0 124 #f5ae5d
0 125 #95ce99
0 126 #b5157d
0 127 #eeeeee
0 128 #848484
0 129 #7b7b7b
0 130 #005a00
0 131 #e77373
0 132 #ffcb31
0 133 #29794a
0 134 #de2821
0 135 #2159c6
0 136 #f8f8f8
0 137 #e6e6e6
0 138 #a5b5c6
0 139 #6b6b94
0 140 #846b6b
0 141 #529c4a
0 142 #d6e7e7
0 143 #526363
0 144 #186b4a
0 145 #21845a
0 146 #dedede
0 147 #526b29
0 148 #949494
0 149 #006300
0 150 #9ca5b5
0 151 #ff9400
0 152 #ff9400
0 153 #00634a
0 154 #7b844a
0 155 #63737b
0 156 #e7bd7b
0 157 #a0a0a0
0 158 #565151
0 159 #d7d7d7
0 160 #85807d
0 161 #3a3a3a
0 162 #4573aa
0 163 #aeaeae
0 164 #7b79a5
0 165 #73758c
0 166 #635dce
# Desktop computer
6 450 1800 1338 2925
6 523 1818 1275 2507
2 2 0 1 0 38 20 0 20 0.000 2 0 7 0 0 5
	 523 1818 1275 1818 1275 2445 523 2445 523 1818
2 2 0 0 0 35 19 0 22 0.000 1 0 -1 0 0 5
	 1118 1881 1055 1881 1055 2382 1118 2382 1118 1881
2 2 0 0 0 35 19 0 24 0.000 1 0 -1 0 0 5
	 1055 1881 993 1881 993 2382 1055 2382 1055 1881
2 2 0 0 0 35 19 0 26 0.000 1 0 -1 0 0 5
	 993 1881 899 1881 899 2382 993 2382 993 1881
2 2 0 0 0 35 19 0 28 0.000 1 0 -1 0 0 5
	 899 1881 805 1881 805 2382 899 2382 899 1881
2 2 0 0 0 35 19 0 30 0.000 1 0 -1 0 0 5
	 805 1881 742 1881 742 2382 805 2382 805 1881
2 2 0 0 0 35 19 0 33 0.000 1 0 -1 0 0 5
	 742 1881 679 1881 679 2382 742 2382 742 1881
2 2 0 0 0 35 19 0 33 0.000 1 0 -1 0 0 5
	 679 1881 617 1881 617 2382 679 2382 679 1881
2 2 0 1 0 36 20 0 20 0.000 2 0 7 0 0 5
	 742 2445 1055 2445 1055 2476 742 2476 742 2445
2 2 0 1 0 36 20 0 20 0.000 2 0 -1 0 0 5
	 711 2476 1087 2476 1087 2507 711 2507 711 2476
2 2 0 0 0 35 19 0 20 0.000 1 0 7 0 0 5
	 1181 1881 1118 1881 1118 2382 1181 2382 1181 1881
3 5 0 0 0 37 18 0 20 0.000 0 0 0 4
	 586 1881 586 2382 617 2351 617 1912
	 0.000 0.000 0.000 0.000
3 5 0 0 0 7 18 0 20 0.000 0 0 0 5
	 586 2382 617 2351 905 2364 1181 2351 1212 2382
	 0.000 0.000 -1.000 0.000 0.000
3 5 0 0 0 37 18 0 20 0.000 0 0 0 4
	 1212 1881 1212 2382 1181 2351 1181 1912
	 0.000 0.000 0.000 0.000
3 5 0 0 0 36 18 0 20 0.000 0 0 0 5
	 586 1881 617 1912 905 1900 1181 1912 1212 1881
	 0.000 0.000 -1.000 0.000 0.000
-6
6 460 2727 1337 2915
2 3 0 1 0 38 20 0 20 0.000 2 0 7 0 0 7
	 554 2727 1243 2727 1337 2884 1337 2915 460 2915 460 2884
	 554 2727
2 1 0 1 0 37 19 0 20 0.000 2 0 -1 0 0 4
	 460 2884 460 2915 1337 2915 1337 2884
2 3 0 0 0 7 19 0 20 0.000 2 0 -1 0 0 5
	 586 2758 523 2852 1087 2852 1055 2758 586 2758
2 2 0 0 0 36 18 0 20 0.000 2 0 -1 0 0 5
	 523 2852 1087 2852 1087 2864 523 2864 523 2852
2 3 0 0 0 37 18 0 20 0.000 2 0 -1 0 0 9
	 574 2758 523 2852 617 2852 630 2821 608 2821 621 2789
	 600 2789 617 2758 574 2758
2 3 0 0 0 37 18 0 20 0.000 2 0 -1 0 0 10
	 1087 2852 993 2852 993 2821 1013 2821 1010 2789 1024 2789
	 1028 2789 1022 2758 1061 2758 1087 2852
2 3 0 0 0 7 19 0 20 0.000 2 0 -1 0 0 5
	 1212 2758 1087 2758 1118 2852 1275 2852 1212 2758
2 3 0 0 0 37 18 0 20 0.000 2 0 -1 0 0 7
	 1275 2852 1246 2852 1212 2777 1092 2777 1086 2758 1225 2758
	 1275 2852
2 2 0 0 0 36 18 0 20 0.000 2 0 -1 0 0 5
	 1118 2852 1275 2852 1275 2863 1118 2863 1118 2852
2 3 0 0 0 36 18 0 20 0.000 2 0 -1 0 0 5
	 1118 2853 1117 2864 1086 2768 1086 2759 1118 2853
-6
6 538 2507 1259 2696
6 1002 2540 1221 2603
6 1002 2540 1221 2603
2 1 0 1 36 -1 19 0 -1 0.000 2 0 -1 0 0 5
	 1002 2571 1002 2556 1070 2556 1070 2540 1153 2540
2 1 0 1 36 -1 19 0 -1 0.000 2 0 -1 0 0 3
	 1070 2603 1070 2571 1153 2571
2 1 0 1 36 -1 19 0 -1 0.000 2 0 -1 0 0 2
	 1153 2556 1221 2556
2 1 0 1 7 -1 19 0 -1 0.000 2 0 -1 0 0 2
	 1153 2540 1153 2556
2 1 0 1 7 -1 19 0 -1 0.000 2 0 -1 0 0 2
	 1002 2571 1070 2571
2 1 0 1 7 -1 19 0 -1 0.000 2 0 -1 0 0 5
	 1070 2603 1153 2603 1153 2571 1221 2571 1221 2556
2 1 0 1 36 -1 19 0 -1 0.000 2 0 -1 0 0 3
	 1170 2603 1204 2603 1204 2587
2 1 0 1 7 -1 19 0 -1 0.000 2 0 -1 0 0 3
	 1170 2603 1170 2587 1204 2587
-6
-6
2 2 0 1 0 35 20 0 20 0.000 2 0 -1 0 0 5
	 538 2696 632 2696 632 2679 538 2679 538 2696
2 2 0 1 0 35 20 0 20 0.000 2 0 -1 0 0 5
	 1165 2696 1259 2696 1259 2679 1165 2679 1165 2696
2 2 0 1 0 38 20 0 20 0.000 2 0 -1 0 0 5
	 538 2507 1259 2507 1259 2681 538 2681 538 2507
-6
-6
# Desktop computer
6 3150 1800 4038 2925
6 3223 1818 3975 2507
2 2 0 1 0 38 20 0 20 0.000 2 0 7 0 0 5
	 3223 1818 3975 1818 3975 2445 3223 2445 3223 1818
2 2 0 0 0 35 19 0 22 0.000 1 0 -1 0 0 5
	 3818 1881 3755 1881 3755 2382 3818 2382 3818 1881
2 2 0 0 0 35 19 0 24 0.000 1 0 -1 0 0 5
	 3755 1881 3693 1881 3693 2382 3755 2382 3755 1881
2 2 0 0 0 35 19 0 26 0.000 1 0 -1 0 0 5
	 3693 1881 3599 1881 3599 2382 3693 2382 3693 1881
2 2 0 0 0 35 19 0 28 0.000 1 0 -1 0 0 5
	 3599 1881 3505 1881 3505 2382 3599 2382 3599 1881
2 2 0 0 0 35 19 0 30 0.000 1 0 -1 0 0 5
	 3505 1881 3442 1881 3442 2382 3505 2382 3505 1881
2 2 0 0 0 35 19 0 33 0.000 1 0 -1 0 0 5
	 3442 1881 3379 1881 3379 2382 3442 2382 3442 1881
2 2 0 0 0 35 19 0 33 0.000 1 0 -1 0 0 5
	 3379 1881 3317 1881 3317 2382 3379 2382 3379 1881
2 2 0 1 0 36 20 0 20 0.000 2 0 7 0 0 5
	 3442 2445 3755 2445 3755 2476 3442 2476 3442 2445
2 2 0 1 0 36 20 0 20 0.000 2 0 -1 0 0 5
	 3411 2476 3787 2476 3787 2507 3411 2507 3411 2476
2 2 0 0 0 35 19 0 20 0.000 1 0 7 0 0 5
	 3881 1881 3818 1881 3818 2382 3881 2382 3881 1881
3 5 0 0 0 37 18 0 20 0.000 0 0 0 4
	 3286 1881 3286 2382 3317 2351 3317 1912
	 0.000 0.000 0.000 0.000
3 5 0 0 0 7 18 0 20 0.000 0 0 0 5
	 3286 2382 3317 2351 3605 2364 3881 2351 3912 2382
	 0.000 0.000 -1.000 0.000 0.000
3 5 0 0 0 37 18 0 20 0.000 0 0 0 4
	 3912 1881 3912 2382 3881 2351 3881 1912
	 0.000 0.000 0.000 0.000
3 5 0 0 0 36 18 0 20 0.000 0 0 0 5
	 3286 1881 3317 1912 3605 1900 3881 1912 3912 1881
	 0.000 0.000 -1.000 0.000 0.000
-6
6 3160 2727 4037 2915
2 3 0 1 0 38 20 0 20 0.000 2 0 7 0 0 7
	 3254 2727 3943 2727 4037 2884 4037 2915 3160 2915 3160 2884
	 3254 2727
2 1 0 1 0 37 19 0 20 0.000 2 0 -1 0 0 4
	 3160 2884 3160 2915 4037 2915 4037 2884
2 3 0 0 0 7 19 0 20 0.000 2 0 -1 0 0 5
	 3286 2758 3223 2852 3787 2852 3755 2758 3286 2758
2 2 0 0 0 36 18 0 20 0.000 2 0 -1 0 0 5
	 3223 2852 3787 2852 3787 2864 3223 2864 3223 2852
2 3 0 0 0 37 18 0 20 0.000 2 0 -1 0 0 9
	 3274 2758 3223 2852 3317 2852 3330 2821 3308 2821 3321 2789
	 3300 2789 3317 2758 3274 2758
2 3 0 0 0 37 18 0 20 0.000 2 0 -1 0 0 10
	 3787 2852 3693 2852 3693 2821 3713 2821 3710 2789 3724 2789
	 3728 2789 3722 2758 3761 2758 3787 2852
2 3 0 0 0 7 19 0 20 0.000 2 0 -1 0 0 5
	 3912 2758 3787 2758 3818 2852 3975 2852 3912 2758
2 3 0 0 0 37 18 0 20 0.000 2 0 -1 0 0 7
	 3975 2852 3946 2852 3912 2777 3792 2777 3786 2758 3925 2758
	 3975 2852
2 2 0 0 0 36 18 0 20 0.000 2 0 -1 0 0 5
	 3818 2852 3975 2852 3975 2863 3818 2863 3818 2852
2 3 0 0 0 36 18 0 20 0.000 2 0 -1 0 0 5
	 3818 2853 3817 2864 3786 2768 3786 2759 3818 2853
-6
6 3238 2507 3959 2696
6 3702 2540 3921 2603
6 3702 2540 3921 2603
2 1 0 1 36 -1 19 0 -1 0.000 2 0 -1 0 0 5
	 3702 2571 3702 2556 3770 2556 3770 2540 3853 2540
2 1 0 1 36 -1 19 0 -1 0.000 2 0 -1 0 0 3
	 3770 2603 3770 2571 3853 2571
2 1 0 1 36 -1 19 0 -1 0.000 2 0 -1 0 0 2
	 3853 2556 3921 2556
2 1 0 1 7 -1 19 0 -1 0.000 2 0 -1 0 0 2
	 3853 2540 3853 2556
2 1 0 1 7 -1 19 0 -1 0.000 2 0 -1 0 0 2
	 3702 2571 3770 2571
2 1 0 1 7 -1 19 0 -1 0.000 2 0 -1 0 0 5
	 3770 2603 3853 2603 3853 2571 3921 2571 3921 2556
2 1 0 1 36 -1 19 0 -1 0.000 2 0 -1 0 0 3
	 3870 2603 3904 2603 3904 2587
2 1 0 1 7 -1 19 0 -1 0.000 2 0 -1 0 0 3
	 3870 2603 3870 2587 3904 2587
-6
-6
2 2 0 1 0 35 20 0 20 0.000 2 0 -1 0 0 5
	 3238 2696 3332 2696 3332 2679 3238 2679 3238 2696
2 2 0 1 0 35 20 0 20 0.000 2 0 -1 0 0 5
	 3865 2696 3959 2696 3959 2679 3865 2679 3865 2696
2 2 0 1 0 38 20 0 20 0.000 2 0 -1 0 0 5
	 3238 2507 3959 2507 3959 2681 3238 2681 3238 2507
-6
-6
2 1 0 1 0 7 50 -1 -1 0.000 0 0 -1 0 0 2
	 900 1980 900 1530
2 1 0 1 0 7 50 -1 -1 0.000 0 0 -1 0 0 2
	 270 1530 4230 1530
2 1 0 1 0 7 50 -1 -1 0.000 0 0 -1 0 0 2
	 3600 1980 3600 1530
2 3 0 1 20 20 40 -1 20 0.000 0 0 7 0 0 13
	 3054 1254 2923 1285 2848 1163 2835 1305 2703 1335 2811 1403
	 2744 1511 2875 1480 2950 1602 2963 1460 3095 1430 2987 1362
	 3054 1254
3 0 0 6 1 7 40 -1 -1 0.000 0 1 0 6
	1 1 6.00 60.00 60.00
	 990 1980 990 1620 990 1485 900 1395 810 1395 270 1395
	 0.000 1.000 1.000 1.000 1.000 0.000
3 0 0 6 1 7 40 -1 -1 0.000 0 1 0 6
	1 1 6.00 60.00 60.00
	 990 1980 990 1620 990 1485 1080 1395 1170 1395 2745 1395
	 0.000 1.000 1.000 1.000 1.000 0.000
3 0 0 6 1 7 40 -1 -1 0.000 0 1 0 6
	1 1 6.00 60.00 60.00
	 3735 1980 3735 1620 3735 1485 3645 1395 3555 1395 3060 1395
	 0.000 1.000 1.000 1.000 1.000 0.000
3 0 0 6 1 7 40 -1 -1 0.000 0 1 0 6
	1 1 6.00 60.00 60.00
	 3735 1980 3735 1620 3735 1485 3825 1395 3915 1395 4230 1395
	 0.000 1.000 1.000 1.000 1.000 0.000
4 2 20 40 -1 16 12 0.1222 4 150 1050 3060 1710 Badaboum !\001
