#FIG 3.2  Produced by xfig version 3.2.8b
Landscape
Center
Metric
A4
100.00
Single
-2
1200 2
0 32 #c6b797
0 33 #eff8ff
0 34 #dccba6
0 35 #404040
0 36 #808080
0 37 #c0c0c0
0 38 #e0e0e0
0 39 #8e8f8e
0 40 #aaaaaa
0 41 #555555
0 42 #c7c3c7
0 43 #565151
0 44 #8e8e8e
0 45 #d7d7d7
0 46 #85807d
0 47 #d2d2d2
0 48 #3a3a3a
0 49 #4573aa
0 50 #aeaeae
0 51 #7b79a5
0 52 #444444
0 53 #73758c
0 54 #f7f7f7
0 55 #414541
0 56 #635dce
0 57 #bebebe
0 58 #515151
0 59 #e7e3e7
0 60 #000049
0 61 #797979
0 62 #303430
0 63 #414141
0 64 #c7b696
# Desktop computer
6 450 540 2475 3105
6 616 582 2331 2153
2 2 0 1 0 38 20 0 20 0.000 2 0 7 0 0 5
	 616 582 2331 582 2331 2010 616 2010 616 582
2 2 0 0 0 35 19 0 22 0.000 1 0 -1 0 0 5
	 1973 725 1830 725 1830 1868 1973 1868 1973 725
2 2 0 0 0 35 19 0 24 0.000 1 0 -1 0 0 5
	 1830 725 1688 725 1688 1868 1830 1868 1830 725
2 2 0 0 0 35 19 0 26 0.000 1 0 -1 0 0 5
	 1688 725 1473 725 1473 1868 1688 1868 1688 725
2 2 0 0 0 35 19 0 28 0.000 1 0 -1 0 0 5
	 1473 725 1259 725 1259 1868 1473 1868 1473 725
2 2 0 0 0 35 19 0 30 0.000 1 0 -1 0 0 5
	 1259 725 1116 725 1116 1868 1259 1868 1259 725
2 2 0 0 0 35 19 0 33 0.000 1 0 -1 0 0 5
	 1116 725 973 725 973 1868 1116 1868 1116 725
2 2 0 0 0 35 19 0 33 0.000 1 0 -1 0 0 5
	 973 725 830 725 830 1868 973 1868 973 725
2 2 0 1 0 36 20 0 20 0.000 2 0 7 0 0 5
	 1116 2010 1830 2010 1830 2082 1116 2082 1116 2010
2 2 0 1 0 36 20 0 20 0.000 2 0 -1 0 0 5
	 1045 2082 1902 2082 1902 2153 1045 2153 1045 2082
2 2 0 0 0 35 19 0 20 0.000 1 0 7 0 0 5
	 2116 725 1973 725 1973 1868 2116 1868 2116 725
3 5 0 0 0 37 18 0 20 0.000 0 0 0 4
	 759 725 759 1868 830 1796 830 796
	 0.000 0.000 0.000 0.000
3 5 0 0 0 7 18 0 20 0.000 0 0 0 5
	 759 1868 830 1796 1488 1825 2116 1796 2188 1868
	 0.000 0.000 -1.000 0.000 0.000
3 5 0 0 0 37 18 0 20 0.000 0 0 0 4
	 2188 725 2188 1868 2116 1796 2116 796
	 0.000 0.000 0.000 0.000
3 5 0 0 0 36 18 0 20 0.000 0 0 0 5
	 759 725 830 796 1488 767 2116 796 2188 725
	 0.000 0.000 -1.000 0.000 0.000
-6
6 473 2653 2473 3082
2 3 0 1 0 38 20 0 20 0.000 2 0 7 0 0 7
	 687 2653 2259 2653 2473 3011 2473 3082 473 3082 473 3011
	 687 2653
2 1 0 1 0 37 19 0 20 0.000 2 0 -1 0 0 4
	 473 3011 473 3082 2473 3082 2473 3011
2 3 0 0 0 7 19 0 20 0.000 2 0 -1 0 0 5
	 759 2725 616 2939 1902 2939 1830 2725 759 2725
2 2 0 0 0 36 18 0 20 0.000 2 0 -1 0 0 5
	 616 2939 1902 2939 1902 2965 616 2965 616 2939
2 3 0 0 0 37 18 0 20 0.000 2 0 -1 0 0 9
	 732 2725 616 2939 830 2939 860 2868 810 2868 839 2796
	 793 2796 830 2725 732 2725
2 3 0 0 0 37 18 0 20 0.000 2 0 -1 0 0 10
	 1902 2939 1688 2939 1688 2867 1734 2868 1727 2796 1759 2796
	 1769 2796 1755 2725 1844 2725 1902 2939
2 3 0 0 0 7 19 0 20 0.000 2 0 -1 0 0 5
	 2188 2725 1902 2725 1973 2939 2331 2939 2188 2725
2 3 0 0 0 37 18 0 20 0.000 2 0 -1 0 0 7
	 2331 2939 2265 2939 2188 2768 1915 2768 1901 2725 2217 2725
	 2331 2939
2 2 0 0 0 36 18 0 20 0.000 2 0 -1 0 0 5
	 1973 2939 2331 2939 2331 2964 1973 2964 1973 2939
2 3 0 0 0 36 18 0 20 0.000 2 0 -1 0 0 5
	 1973 2940 1972 2966 1900 2746 1901 2726 1973 2940
-6
6 651 2153 2294 2582
6 1709 2228 2209 2370
6 1709 2228 2209 2370
2 1 0 1 36 -1 19 0 -1 0.000 2 0 -1 0 0 5
	 1709 2299 1709 2263 1863 2263 1863 2228 2054 2228
2 1 0 1 36 -1 19 0 -1 0.000 2 0 -1 0 0 3
	 1863 2370 1863 2299 2054 2299
2 1 0 1 36 -1 19 0 -1 0.000 2 0 -1 0 0 2
	 2054 2263 2209 2263
2 1 0 1 7 -1 19 0 -1 0.000 2 0 -1 0 0 2
	 2054 2228 2054 2263
2 1 0 1 7 -1 19 0 -1 0.000 2 0 -1 0 0 2
	 1709 2299 1863 2299
2 1 0 1 7 -1 19 0 -1 0.000 2 0 -1 0 0 5
	 1863 2370 2054 2370 2054 2299 2209 2299 2209 2263
2 1 0 1 36 -1 19 0 -1 0.000 2 0 -1 0 0 3
	 2093 2370 2170 2370 2170 2335
2 1 0 1 7 -1 19 0 -1 0.000 2 0 -1 0 0 3
	 2093 2370 2093 2335 2170 2335
-6
-6
2 2 0 1 0 35 20 0 20 0.000 2 0 -1 0 0 5
	 651 2582 866 2582 866 2545 651 2545 651 2582
2 2 0 1 0 35 20 0 20 0.000 2 0 -1 0 0 5
	 2080 2582 2294 2582 2294 2545 2080 2545 2080 2582
2 2 0 1 0 38 20 0 20 0.000 2 0 -1 0 0 5
	 651 2153 2294 2153 2294 2548 651 2548 651 2153
-6
-6
6 2385 990 13230 1395
2 1 0 1 0 7 90 -1 -1 0.000 0 0 7 1 1 2
	1 1 1.00 120.00 180.00
	1 1 1.00 120.00 180.00
	 2385 1305 4455 1305
2 1 0 1 0 7 40 -1 -1 0.000 0 0 -1 1 1 2
	1 1 1.00 120.00 180.00
	1 1 1.00 120.00 180.00
	 8370 1305 13230 1305
4 1 0 50 -1 16 18 0.0000 4 210 1485 3420 1215 010100110\001
-6
2 5 0 1 0 -1 50 -1 20 0.000 0 0 -1 0 0 5
	0 coupleur-acoustique.jpg
	 4500 540 8310 540 8310 3070 4500 3070 4500 540
2 5 0 1 0 -1 50 -1 20 0.000 0 0 -1 0 0 5
	0 am-fm.png
	 9270 520 12520 520 12520 3060 9270 3060 9270 520
