#FIG 3.2  Produced by xfig version 3.2.5c
Portrait
Center
Metric
A4      
100.00
Single
-2
1200 2
2 1 0 1 0 7 50 0 -1 0.000 0 0 -1 0 0 4
	 225 675 225 225 3825 225 3825 675
2 1 0 1 -1 -1 50 0 -1 0.000 0 0 -1 0 0 2
	 225 450 3825 450
2 1 0 1 -1 -1 50 0 -1 0.000 0 0 -1 0 0 2
	 2025 225 2025 450
2 1 0 1 -1 -1 50 0 -1 0.000 0 0 -1 0 0 2
	 1125 225 1125 450
2 1 1 1 0 7 50 0 -1 4.000 0 0 -1 0 0 2
	 225 675 225 1035
2 1 0 1 -1 -1 50 0 -1 0.000 0 0 -1 0 0 2
	 2925 225 2925 450
2 1 0 1 0 7 50 0 -1 0.000 0 0 -1 0 0 4
	 225 1035 225 1125 3825 1125 3825 1035
2 1 1 1 0 7 50 0 -1 4.000 0 0 -1 0 0 2
	 3825 675 3825 1035
2 2 0 0 0 6 51 -1 38 0.000 0 0 -1 0 0 5
	 225 225 3825 225 3825 1125 225 1125 225 225
2 2 0 0 0 0 52 -1 20 0.000 0 0 -1 0 0 5
	 270 270 3870 270 3870 1170 270 1170 270 270
4 1 -1 50 0 16 8 0.0000 4 135 915 3375 405 Segments Left\001
4 1 -1 50 0 16 8 0.0000 4 135 840 2475 405 Routing Type\001
4 1 -1 50 0 16 8 0.0000 4 105 750 1575 405 Hdr Ext Len\001
4 1 -1 50 0 16 8 0.0000 4 105 795 675 405 Next Header\001
4 1 -1 50 0 16 8 0.0000 4 135 1155 2025 810 Type-specific data\001
4 2 -1 51 0 16 8 0.0000 4 90 150 3825 180 31\001
4 0 -1 51 0 16 8 0.0000 4 90 150 2925 180 24\001
4 0 -1 51 0 16 8 0.0000 4 90 150 2025 180 16\001
4 0 -1 51 0 16 8 0.0000 4 90 75 1125 180 8\001
4 0 -1 51 0 16 8 0.0000 4 90 75 225 180 0\001
