#FIG 3.2
Portrait
Center
Metric
A4      
100.00
Single
-2
1200 2
2 2 0 1 -1 -1 0 0 -1 0.000 0 0 0 0 0 5
	 900 1575 900 1350 450 1350 450 1575 900 1575
2 2 0 1 -1 -1 0 0 -1 0.000 0 0 0 0 0 5
	 1575 900 1575 675 1125 675 1125 900 1575 900
2 1 0 1 -1 -1 0 0 -1 0.000 0 0 -1 0 0 2
	 405 1125 1485 1125
2 1 0 1 -1 -1 0 0 -1 0.000 0 0 -1 0 0 2
	 1350 900 1350 1125
2 1 0 1 -1 -1 0 0 -1 0.000 0 0 -1 0 0 2
	 1350 450 1350 675
2 1 0 1 -1 -1 0 0 -1 0.000 0 0 -1 0 0 2
	 675 1125 675 1350
2 1 0 1 -1 -1 0 0 -1 0.000 0 0 -1 0 0 2
	 990 450 3420 450
2 2 0 1 -1 -1 0 0 -1 0.000 0 0 0 0 0 5
	 2925 900 2925 675 2475 675 2475 900 2925 900
2 2 0 1 -1 -1 0 0 -1 0.000 0 0 0 0 0 5
	 3600 1575 3600 1350 3150 1350 3150 1575 3600 1575
2 1 0 1 -1 -1 0 0 -1 0.000 0 0 -1 0 0 2
	 2565 1125 3645 1125
2 1 0 1 -1 -1 0 0 -1 0.000 0 0 -1 0 0 2
	 2700 900 2700 1125
2 1 0 1 -1 -1 0 0 -1 0.000 0 0 -1 0 0 2
	 2700 450 2700 675
2 1 0 1 -1 -1 0 0 -1 0.000 0 0 -1 0 0 2
	 3375 1125 3375 1350
2 2 0 1 -1 -1 0 0 -1 0.000 0 0 0 0 0 5
	 2610 2700 2610 2025 2160 2025 2160 2700 2610 2700
2 1 0 1 -1 -1 0 0 -1 0.000 0 0 -1 0 0 2
	 2160 2250 2610 2250
2 1 0 1 -1 -1 0 0 -1 0.000 0 0 -1 0 0 4
	 2160 2025 2160 1800 2610 1800 2610 2025
2 2 0 1 -1 -1 0 0 -1 0.000 0 0 0 0 0 5
	 1890 2700 1890 2025 1440 2025 1440 2700 1890 2700
2 1 0 1 -1 -1 0 0 -1 0.000 0 0 -1 0 0 2
	 1440 2250 1890 2250
2 1 0 1 -1 -1 0 0 -1 0.000 0 0 -1 0 0 4
	 1440 2025 1440 1800 1890 1800 1890 2025
2 2 0 1 -1 -1 0 0 -1 0.000 0 0 0 0 0 5
	 1170 2700 1170 2025 720 2025 720 2700 1170 2700
2 1 0 1 -1 -1 0 0 -1 0.000 0 0 -1 0 0 2
	 720 2250 1170 2250
2 2 0 1 -1 -1 0 0 -1 0.000 0 0 0 0 0 5
	 3870 2700 3870 2025 3420 2025 3420 2700 3870 2700
2 1 0 1 -1 -1 0 0 -1 0.000 0 0 -1 0 0 2
	 3420 2250 3870 2250
2 2 0 1 -1 -1 0 0 -1 0.000 0 0 0 0 0 5
	 3240 2700 3240 2025 2790 2025 2790 2700 3240 2700
2 1 0 1 -1 -1 0 0 -1 0.000 0 0 -1 0 0 2
	 2790 2250 3240 2250
2 1 0 1 -1 -1 0 0 -1 0.000 0 0 -1 0 0 4
	 2790 2025 2790 1800 3240 1800 3240 2025
2 2 0 1 -1 -1 0 0 -1 0.000 0 0 0 0 0 5
	 630 2700 630 2025 180 2025 180 2700 630 2700
2 1 0 1 -1 -1 0 0 -1 0.000 0 0 -1 0 0 2
	 180 2250 630 2250
4 1 -1 0 0 16 8 0.0000 4 105 360 1350 855 V6/V4\001
4 1 -1 0 0 16 8 0.0000 4 90 165 1710 855 R1\001
4 1 -1 0 0 16 8 0.0000 4 90 165 2340 855 R2\001
4 1 -1 0 0 16 8 0.0000 4 90 165 2700 855 V4\001
4 1 -1 0 0 16 8 0.0000 4 105 360 3375 1530 V6/V4\001
4 1 -1 0 0 16 8 0.0000 4 90 90 3735 1530 B\001
4 1 -1 0 0 16 8 0.0000 4 105 360 675 1530 V6/V4\001
4 1 -1 0 0 16 8 0.0000 4 90 90 315 1530 A\001
4 1 -1 0 0 16 8 0.0000 4 90 270 405 2205 IPv6\001
4 1 -1 0 0 16 8 0.0000 4 105 255 405 2520 Data\001
4 1 -1 0 0 16 8 0.0000 4 105 255 945 2520 Data\001
4 1 -1 0 0 16 8 0.0000 4 90 270 945 2205 IPv6\001
4 1 -1 0 0 16 8 0.0000 4 90 270 1665 1980 IPv4\001
4 1 -1 0 0 16 8 0.0000 4 90 270 1665 2205 IPv6\001
4 1 -1 0 0 16 8 0.0000 4 105 255 1665 2520 Data\001
4 1 -1 0 0 16 8 0.0000 4 105 255 2385 2520 Data\001
4 1 -1 0 0 16 8 0.0000 4 90 270 2385 2205 IPv6\001
4 1 -1 0 0 16 8 0.0000 4 90 270 2385 1980 IPv4\001
4 1 -1 0 0 16 8 0.0000 4 90 270 3015 1980 IPv4\001
4 1 -1 0 0 16 8 0.0000 4 90 270 3015 2205 IPv6\001
4 1 -1 0 0 16 8 0.0000 4 105 255 3015 2520 Data\001
4 1 -1 0 0 16 8 0.0000 4 105 255 3645 2520 Data\001
4 1 -1 0 0 16 8 0.0000 4 90 270 3645 2205 IPv6\001
