#FIG 3.2  Produced by xfig version 3.2.7b
Portrait
Center
Metric
A4
100.00
Single
-2
1200 2
0 32 #c6b797
0 33 #eff8ff
0 34 #dccba6
0 35 #404040
0 36 #808080
0 37 #c0c0c0
0 38 #e0e0e0
0 39 #8e8f8e
0 40 #aaaaaa
0 41 #555555
0 42 #bebebe
0 43 #515151
0 44 #e7e3e7
0 45 #000049
0 46 #797979
0 47 #303430
0 48 #414141
0 49 #c7b696
0 50 #8e8e8e
0 51 #414541
0 52 #8e8e8e
0 53 #cccccc
0 54 #868286
0 55 #c7c3c7
0 56 #444444
0 57 #868686
0 58 #c7c7c7
0 59 #e7e7e7
0 60 #f7f7f7
0 61 #9e9e9e
0 62 #717571
0 63 #effbff
0 64 #666666
0 65 #909090
0 66 #e6e4ce
0 67 #9b9b9b
0 68 #ce9100
0 69 #f762aa
0 70 #7070ff
0 71 #5f5f5f
0 72 #e2e2ee
0 73 #94949a
0 74 #dbdbdb
0 75 #a1a1b7
0 76 #9c0000
0 77 #000000
0 78 #ffffff
0 79 #dd9d93
0 80 #f1ece0
0 81 #c3c3c3
0 82 #e2c8a8
0 83 #e1e1e1
0 84 #d2d2d2
0 85 #ededed
0 86 #da7a1a
0 87 #f1e41a
0 88 #887dc2
0 89 #d6d6d6
0 90 #8c8ca5
0 91 #4a4a4a
0 92 #5a5a5a
0 93 #636363
0 94 #b79b73
0 95 #4193ff
0 96 #bf703b
0 97 #db7700
0 98 #dab800
0 99 #006400
0 100 #5a6b3b
0 101 #d3d3d3
0 102 #8e8ea4
0 103 #f3b95d
0 104 #89996b
0 105 #646464
0 106 #b7e6ff
0 107 #86c0ec
0 108 #bdbdbd
0 109 #d39552
0 110 #98d2fe
0 111 #8c6b6b
0 112 #8c9c6b
0 113 #f76b00
0 114 #5a6b39
0 115 #8c9c6b
0 116 #8c9c7b
0 117 #184a18
0 118 #adadad
0 119 #f7bd5a
0 120 #636b9c
0 121 #de0000
0 122 #adadad
0 123 #f3eed3
0 124 #f5ae5d
0 125 #95ce99
0 126 #b5157d
0 127 #eeeeee
0 128 #848484
0 129 #7b7b7b
0 130 #005a00
0 131 #e77373
0 132 #ffcb31
0 133 #29794a
0 134 #de2821
0 135 #2159c6
0 136 #f8f8f8
0 137 #e6e6e6
0 138 #a5b5c6
0 139 #6b6b94
0 140 #846b6b
0 141 #529c4a
0 142 #d6e7e7
0 143 #526363
0 144 #186b4a
0 145 #21845a
0 146 #dedede
0 147 #526b29
0 148 #949494
0 149 #006300
0 150 #9ca5b5
0 151 #ff9400
0 152 #ff9400
0 153 #00634a
0 154 #7b844a
0 155 #63737b
0 156 #e7bd7b
0 157 #565151
0 158 #d7d7d7
0 159 #85807d
0 160 #3a3a3a
0 161 #4573aa
0 162 #aeaeae
0 163 #7b79a5
0 164 #73758c
0 165 #635dce
# A network cloud
# drawn by P. David
6 2785 1080 3915 1845
5 1 0 1 0 11 52 -1 30 0.000 0 0 0 0 3121.250 1365.507 2885 1479 3051 1113 3383 1379
5 1 0 1 0 11 53 -1 30 0.000 0 0 0 0 3466.036 1329.036 3250 1313 3450 1113 3682 1346
5 1 0 1 0 11 54 -1 30 0.000 0 0 0 0 3699.000 1396.000 3549 1280 3849 1280 3549 1512
5 1 0 1 0 11 55 -1 30 0.000 0 0 0 0 3483.000 1546.000 3649 1446 3583 1712 3317 1446
5 1 0 1 0 11 56 -1 30 0.000 0 1 0 0 3283.500 1595.500 3117 1413 3117 1778 3450 1413
5 1 0 1 0 11 57 -1 30 0.000 0 0 0 0 3001.000 1541.344 3151 1645 2851 1645 2918 1379
2 2 0 0 0 11 51 -1 30 0.000 0 0 -1 0 0 5
	 2984 1313 3616 1313 3616 1612 2984 1612 2984 1313
-6
# Router small icon
# drawn by P. David
6 3105 1935 3600 2430
1 3 0 1 7 1 50 -1 20 0.000 1 0.0000 3330 2160 225 225 3330 2160 3555 2160
1 3 0 0 1 1 51 -1 5 0.000 1 0.0000 3375 2205 225 225 3375 2205 3600 2205
2 1 0 2 6 7 49 -1 -1 0.000 0 0 7 1 0 3
	1 1 1.00 45.00 60.00
	 3375 1980 3375 2115 3510 2115
2 1 0 2 6 7 49 -1 -1 0.000 0 0 7 1 0 3
	1 1 1.00 45.00 60.00
	 3510 2205 3375 2205 3375 2340
2 1 0 2 6 7 49 -1 -1 0.000 0 0 7 1 0 3
	1 1 1.00 45.00 60.00
	 3285 2340 3285 2205 3150 2205
2 1 0 2 6 7 49 -1 -1 0.000 0 0 7 1 0 3
	1 1 1.00 45.00 60.00
	 3150 2115 3285 2115 3285 1980
-6
# Desktop computer
6 2430 3150 2785 3600
6 2459 3157 2760 3433
2 2 0 1 0 38 20 0 20 0.000 2 0 7 0 0 5
	 2459 3157 2760 3157 2760 3408 2459 3408 2459 3157
2 2 0 0 0 35 19 0 22 0.000 1 0 -1 0 0 5
	 2697 3182 2672 3182 2672 3383 2697 3383 2697 3182
2 2 0 0 0 35 19 0 24 0.000 1 0 -1 0 0 5
	 2672 3182 2647 3182 2647 3383 2672 3383 2672 3182
2 2 0 0 0 35 19 0 26 0.000 1 0 -1 0 0 5
	 2647 3182 2609 3182 2609 3383 2647 3383 2647 3182
2 2 0 0 0 35 19 0 28 0.000 1 0 -1 0 0 5
	 2609 3182 2572 3182 2572 3383 2609 3383 2609 3182
2 2 0 0 0 35 19 0 30 0.000 1 0 -1 0 0 5
	 2572 3182 2547 3182 2547 3383 2572 3383 2572 3182
2 2 0 0 0 35 19 0 33 0.000 1 0 -1 0 0 5
	 2547 3182 2522 3182 2522 3383 2547 3383 2547 3182
2 2 0 0 0 35 19 0 33 0.000 1 0 -1 0 0 5
	 2522 3182 2497 3182 2497 3383 2522 3383 2522 3182
2 2 0 1 0 36 20 0 20 0.000 2 0 7 0 0 5
	 2547 3408 2672 3408 2672 3421 2547 3421 2547 3408
2 2 0 1 0 36 20 0 20 0.000 2 0 -1 0 0 5
	 2534 3421 2685 3421 2685 3433 2534 3433 2534 3421
2 2 0 0 0 35 19 0 20 0.000 1 0 7 0 0 5
	 2722 3182 2697 3182 2697 3383 2722 3383 2722 3182
3 5 0 0 0 37 18 0 20 0.000 0 0 0 4
	 2484 3182 2484 3383 2497 3370 2497 3195
	 0.000 0.000 0.000 0.000
3 5 0 0 0 7 18 0 20 0.000 0 0 0 5
	 2484 3383 2497 3370 2612 3375 2722 3370 2735 3383
	 0.000 0.000 -1.000 0.000 0.000
3 5 0 0 0 37 18 0 20 0.000 0 0 0 4
	 2735 3182 2735 3383 2722 3370 2722 3195
	 0.000 0.000 0.000 0.000
3 5 0 0 0 36 18 0 20 0.000 0 0 0 5
	 2484 3182 2497 3195 2612 3190 2722 3195 2735 3182
	 0.000 0.000 -1.000 0.000 0.000
-6
6 2434 3521 2785 3596
2 3 0 1 0 38 20 0 20 0.000 2 0 7 0 0 7
	 2472 3521 2747 3521 2785 3584 2785 3596 2434 3596 2434 3584
	 2472 3521
2 1 0 1 0 37 19 0 20 0.000 2 0 -1 0 0 4
	 2434 3584 2434 3596 2785 3596 2785 3584
2 3 0 0 0 7 19 0 20 0.000 2 0 -1 0 0 5
	 2484 3533 2459 3571 2685 3571 2672 3533 2484 3533
2 2 0 0 0 36 18 0 20 0.000 2 0 -1 0 0 5
	 2459 3571 2685 3571 2685 3575 2459 3575 2459 3571
2 3 0 0 0 37 18 0 20 0.000 2 0 -1 0 0 9
	 2479 3533 2459 3571 2497 3571 2502 3558 2493 3558 2498 3546
	 2490 3546 2497 3533 2479 3533
2 3 0 0 0 37 18 0 20 0.000 2 0 -1 0 0 10
	 2685 3571 2647 3571 2647 3558 2655 3558 2654 3546 2659 3546
	 2661 3546 2659 3533 2674 3533 2685 3571
2 3 0 0 0 7 19 0 20 0.000 2 0 -1 0 0 5
	 2735 3533 2685 3533 2697 3571 2760 3571 2735 3533
2 3 0 0 0 37 18 0 20 0.000 2 0 -1 0 0 7
	 2760 3571 2748 3571 2735 3541 2687 3541 2684 3533 2740 3533
	 2760 3571
2 2 0 0 0 36 18 0 20 0.000 2 0 -1 0 0 5
	 2697 3571 2760 3571 2760 3575 2697 3575 2697 3571
2 3 0 0 0 36 18 0 20 0.000 2 0 -1 0 0 5
	 2697 3571 2697 3576 2684 3537 2684 3534 2697 3571
-6
6 2465 3433 2753 3508
6 2651 3446 2738 3471
6 2651 3446 2738 3471
2 1 0 1 36 -1 19 0 -1 0.000 2 0 -1 0 0 5
	 2651 3459 2651 3452 2678 3452 2678 3446 2711 3446
2 1 0 1 36 -1 19 0 -1 0.000 2 0 -1 0 0 3
	 2678 3471 2678 3459 2711 3459
2 1 0 1 36 -1 19 0 -1 0.000 2 0 -1 0 0 2
	 2711 3452 2738 3452
2 1 0 1 7 -1 19 0 -1 0.000 2 0 -1 0 0 2
	 2711 3446 2711 3452
2 1 0 1 7 -1 19 0 -1 0.000 2 0 -1 0 0 2
	 2651 3459 2678 3459
2 1 0 1 7 -1 19 0 -1 0.000 2 0 -1 0 0 5
	 2678 3471 2711 3471 2711 3459 2738 3459 2738 3452
2 1 0 1 36 -1 19 0 -1 0.000 2 0 -1 0 0 3
	 2718 3471 2732 3471 2732 3465
2 1 0 1 7 -1 19 0 -1 0.000 2 0 -1 0 0 3
	 2718 3471 2718 3465 2732 3465
-6
-6
2 2 0 1 0 35 20 0 20 0.000 2 0 -1 0 0 5
	 2465 3508 2503 3508 2503 3502 2465 3502 2465 3508
2 2 0 1 0 35 20 0 20 0.000 2 0 -1 0 0 5
	 2716 3508 2753 3508 2753 3502 2716 3502 2716 3508
2 2 0 1 0 38 20 0 20 0.000 2 0 -1 0 0 5
	 2465 3433 2753 3433 2753 3502 2465 3502 2465 3433
-6
-6
# Desktop computer
6 3600 3150 3955 3600
6 3629 3157 3930 3433
2 2 0 1 0 38 20 0 20 0.000 2 0 7 0 0 5
	 3629 3157 3930 3157 3930 3408 3629 3408 3629 3157
2 2 0 0 0 35 19 0 22 0.000 1 0 -1 0 0 5
	 3867 3182 3842 3182 3842 3383 3867 3383 3867 3182
2 2 0 0 0 35 19 0 24 0.000 1 0 -1 0 0 5
	 3842 3182 3817 3182 3817 3383 3842 3383 3842 3182
2 2 0 0 0 35 19 0 26 0.000 1 0 -1 0 0 5
	 3817 3182 3779 3182 3779 3383 3817 3383 3817 3182
2 2 0 0 0 35 19 0 28 0.000 1 0 -1 0 0 5
	 3779 3182 3742 3182 3742 3383 3779 3383 3779 3182
2 2 0 0 0 35 19 0 30 0.000 1 0 -1 0 0 5
	 3742 3182 3717 3182 3717 3383 3742 3383 3742 3182
2 2 0 0 0 35 19 0 33 0.000 1 0 -1 0 0 5
	 3717 3182 3692 3182 3692 3383 3717 3383 3717 3182
2 2 0 0 0 35 19 0 33 0.000 1 0 -1 0 0 5
	 3692 3182 3667 3182 3667 3383 3692 3383 3692 3182
2 2 0 1 0 36 20 0 20 0.000 2 0 7 0 0 5
	 3717 3408 3842 3408 3842 3421 3717 3421 3717 3408
2 2 0 1 0 36 20 0 20 0.000 2 0 -1 0 0 5
	 3704 3421 3855 3421 3855 3433 3704 3433 3704 3421
2 2 0 0 0 35 19 0 20 0.000 1 0 7 0 0 5
	 3892 3182 3867 3182 3867 3383 3892 3383 3892 3182
3 5 0 0 0 37 18 0 20 0.000 0 0 0 4
	 3654 3182 3654 3383 3667 3370 3667 3195
	 0.000 0.000 0.000 0.000
3 5 0 0 0 7 18 0 20 0.000 0 0 0 5
	 3654 3383 3667 3370 3782 3375 3892 3370 3905 3383
	 0.000 0.000 -1.000 0.000 0.000
3 5 0 0 0 37 18 0 20 0.000 0 0 0 4
	 3905 3182 3905 3383 3892 3370 3892 3195
	 0.000 0.000 0.000 0.000
3 5 0 0 0 36 18 0 20 0.000 0 0 0 5
	 3654 3182 3667 3195 3782 3190 3892 3195 3905 3182
	 0.000 0.000 -1.000 0.000 0.000
-6
6 3604 3521 3955 3596
2 3 0 1 0 38 20 0 20 0.000 2 0 7 0 0 7
	 3642 3521 3917 3521 3955 3584 3955 3596 3604 3596 3604 3584
	 3642 3521
2 1 0 1 0 37 19 0 20 0.000 2 0 -1 0 0 4
	 3604 3584 3604 3596 3955 3596 3955 3584
2 3 0 0 0 7 19 0 20 0.000 2 0 -1 0 0 5
	 3654 3533 3629 3571 3855 3571 3842 3533 3654 3533
2 2 0 0 0 36 18 0 20 0.000 2 0 -1 0 0 5
	 3629 3571 3855 3571 3855 3575 3629 3575 3629 3571
2 3 0 0 0 37 18 0 20 0.000 2 0 -1 0 0 9
	 3649 3533 3629 3571 3667 3571 3672 3558 3663 3558 3668 3546
	 3660 3546 3667 3533 3649 3533
2 3 0 0 0 37 18 0 20 0.000 2 0 -1 0 0 10
	 3855 3571 3817 3571 3817 3558 3825 3558 3824 3546 3829 3546
	 3831 3546 3829 3533 3844 3533 3855 3571
2 3 0 0 0 7 19 0 20 0.000 2 0 -1 0 0 5
	 3905 3533 3855 3533 3867 3571 3930 3571 3905 3533
2 3 0 0 0 37 18 0 20 0.000 2 0 -1 0 0 7
	 3930 3571 3918 3571 3905 3541 3857 3541 3854 3533 3910 3533
	 3930 3571
2 2 0 0 0 36 18 0 20 0.000 2 0 -1 0 0 5
	 3867 3571 3930 3571 3930 3575 3867 3575 3867 3571
2 3 0 0 0 36 18 0 20 0.000 2 0 -1 0 0 5
	 3867 3571 3867 3576 3854 3537 3854 3534 3867 3571
-6
6 3635 3433 3923 3508
6 3821 3446 3908 3471
6 3821 3446 3908 3471
2 1 0 1 36 -1 19 0 -1 0.000 2 0 -1 0 0 5
	 3821 3459 3821 3452 3848 3452 3848 3446 3881 3446
2 1 0 1 36 -1 19 0 -1 0.000 2 0 -1 0 0 3
	 3848 3471 3848 3459 3881 3459
2 1 0 1 36 -1 19 0 -1 0.000 2 0 -1 0 0 2
	 3881 3452 3908 3452
2 1 0 1 7 -1 19 0 -1 0.000 2 0 -1 0 0 2
	 3881 3446 3881 3452
2 1 0 1 7 -1 19 0 -1 0.000 2 0 -1 0 0 2
	 3821 3459 3848 3459
2 1 0 1 7 -1 19 0 -1 0.000 2 0 -1 0 0 5
	 3848 3471 3881 3471 3881 3459 3908 3459 3908 3452
2 1 0 1 36 -1 19 0 -1 0.000 2 0 -1 0 0 3
	 3888 3471 3902 3471 3902 3465
2 1 0 1 7 -1 19 0 -1 0.000 2 0 -1 0 0 3
	 3888 3471 3888 3465 3902 3465
-6
-6
2 2 0 1 0 35 20 0 20 0.000 2 0 -1 0 0 5
	 3635 3508 3673 3508 3673 3502 3635 3502 3635 3508
2 2 0 1 0 35 20 0 20 0.000 2 0 -1 0 0 5
	 3886 3508 3923 3508 3923 3502 3886 3502 3886 3508
2 2 0 1 0 38 20 0 20 0.000 2 0 -1 0 0 5
	 3635 3433 3923 3433 3923 3502 3635 3502 3635 3433
-6
-6
# Desktop computer
6 4770 3150 5125 3600
6 4799 3157 5100 3433
2 2 0 1 0 38 20 0 20 0.000 2 0 7 0 0 5
	 4799 3157 5100 3157 5100 3408 4799 3408 4799 3157
2 2 0 0 0 35 19 0 22 0.000 1 0 -1 0 0 5
	 5037 3182 5012 3182 5012 3383 5037 3383 5037 3182
2 2 0 0 0 35 19 0 24 0.000 1 0 -1 0 0 5
	 5012 3182 4987 3182 4987 3383 5012 3383 5012 3182
2 2 0 0 0 35 19 0 26 0.000 1 0 -1 0 0 5
	 4987 3182 4949 3182 4949 3383 4987 3383 4987 3182
2 2 0 0 0 35 19 0 28 0.000 1 0 -1 0 0 5
	 4949 3182 4912 3182 4912 3383 4949 3383 4949 3182
2 2 0 0 0 35 19 0 30 0.000 1 0 -1 0 0 5
	 4912 3182 4887 3182 4887 3383 4912 3383 4912 3182
2 2 0 0 0 35 19 0 33 0.000 1 0 -1 0 0 5
	 4887 3182 4862 3182 4862 3383 4887 3383 4887 3182
2 2 0 0 0 35 19 0 33 0.000 1 0 -1 0 0 5
	 4862 3182 4837 3182 4837 3383 4862 3383 4862 3182
2 2 0 1 0 36 20 0 20 0.000 2 0 7 0 0 5
	 4887 3408 5012 3408 5012 3421 4887 3421 4887 3408
2 2 0 1 0 36 20 0 20 0.000 2 0 -1 0 0 5
	 4874 3421 5025 3421 5025 3433 4874 3433 4874 3421
2 2 0 0 0 35 19 0 20 0.000 1 0 7 0 0 5
	 5062 3182 5037 3182 5037 3383 5062 3383 5062 3182
3 5 0 0 0 37 18 0 20 0.000 0 0 0 4
	 4824 3182 4824 3383 4837 3370 4837 3195
	 0.000 0.000 0.000 0.000
3 5 0 0 0 7 18 0 20 0.000 0 0 0 5
	 4824 3383 4837 3370 4952 3375 5062 3370 5075 3383
	 0.000 0.000 -1.000 0.000 0.000
3 5 0 0 0 37 18 0 20 0.000 0 0 0 4
	 5075 3182 5075 3383 5062 3370 5062 3195
	 0.000 0.000 0.000 0.000
3 5 0 0 0 36 18 0 20 0.000 0 0 0 5
	 4824 3182 4837 3195 4952 3190 5062 3195 5075 3182
	 0.000 0.000 -1.000 0.000 0.000
-6
6 4774 3521 5125 3596
2 3 0 1 0 38 20 0 20 0.000 2 0 7 0 0 7
	 4812 3521 5087 3521 5125 3584 5125 3596 4774 3596 4774 3584
	 4812 3521
2 1 0 1 0 37 19 0 20 0.000 2 0 -1 0 0 4
	 4774 3584 4774 3596 5125 3596 5125 3584
2 3 0 0 0 7 19 0 20 0.000 2 0 -1 0 0 5
	 4824 3533 4799 3571 5025 3571 5012 3533 4824 3533
2 2 0 0 0 36 18 0 20 0.000 2 0 -1 0 0 5
	 4799 3571 5025 3571 5025 3575 4799 3575 4799 3571
2 3 0 0 0 37 18 0 20 0.000 2 0 -1 0 0 9
	 4819 3533 4799 3571 4837 3571 4842 3558 4833 3558 4838 3546
	 4830 3546 4837 3533 4819 3533
2 3 0 0 0 37 18 0 20 0.000 2 0 -1 0 0 10
	 5025 3571 4987 3571 4987 3558 4995 3558 4994 3546 4999 3546
	 5001 3546 4999 3533 5014 3533 5025 3571
2 3 0 0 0 7 19 0 20 0.000 2 0 -1 0 0 5
	 5075 3533 5025 3533 5037 3571 5100 3571 5075 3533
2 3 0 0 0 37 18 0 20 0.000 2 0 -1 0 0 7
	 5100 3571 5088 3571 5075 3541 5027 3541 5024 3533 5080 3533
	 5100 3571
2 2 0 0 0 36 18 0 20 0.000 2 0 -1 0 0 5
	 5037 3571 5100 3571 5100 3575 5037 3575 5037 3571
2 3 0 0 0 36 18 0 20 0.000 2 0 -1 0 0 5
	 5037 3571 5037 3576 5024 3537 5024 3534 5037 3571
-6
6 4805 3433 5093 3508
6 4991 3446 5078 3471
6 4991 3446 5078 3471
2 1 0 1 36 -1 19 0 -1 0.000 2 0 -1 0 0 5
	 4991 3459 4991 3452 5018 3452 5018 3446 5051 3446
2 1 0 1 36 -1 19 0 -1 0.000 2 0 -1 0 0 3
	 5018 3471 5018 3459 5051 3459
2 1 0 1 36 -1 19 0 -1 0.000 2 0 -1 0 0 2
	 5051 3452 5078 3452
2 1 0 1 7 -1 19 0 -1 0.000 2 0 -1 0 0 2
	 5051 3446 5051 3452
2 1 0 1 7 -1 19 0 -1 0.000 2 0 -1 0 0 2
	 4991 3459 5018 3459
2 1 0 1 7 -1 19 0 -1 0.000 2 0 -1 0 0 5
	 5018 3471 5051 3471 5051 3459 5078 3459 5078 3452
2 1 0 1 36 -1 19 0 -1 0.000 2 0 -1 0 0 3
	 5058 3471 5072 3471 5072 3465
2 1 0 1 7 -1 19 0 -1 0.000 2 0 -1 0 0 3
	 5058 3471 5058 3465 5072 3465
-6
-6
2 2 0 1 0 35 20 0 20 0.000 2 0 -1 0 0 5
	 4805 3508 4843 3508 4843 3502 4805 3502 4805 3508
2 2 0 1 0 35 20 0 20 0.000 2 0 -1 0 0 5
	 5056 3508 5093 3508 5093 3502 5056 3502 5056 3508
2 2 0 1 0 38 20 0 20 0.000 2 0 -1 0 0 5
	 4805 3433 5093 3433 5093 3502 4805 3502 4805 3433
-6
-6
2 1 0 1 0 7 70 -1 -1 0.000 0 0 -1 0 0 2
	 3330 2790 3330 2385
2 1 0 1 0 7 70 -1 -1 0.000 0 0 -1 0 0 2
	 3330 1980 3330 1575
2 1 0 1 0 7 70 -1 -1 0.000 0 0 -1 0 0 2
	 1710 2790 5310 2790
2 1 0 1 0 7 70 -1 -1 0.000 0 0 -1 0 0 2
	 2610 3150 2610 2790
2 1 0 1 0 7 70 -1 -1 0.000 0 0 -1 0 0 2
	 3780 3195 3780 2790
2 1 0 1 0 7 70 -1 -1 0.000 0 0 -1 0 0 2
	 4950 3150 4950 2790
3 0 0 2 4 7 10 -1 -1 0.000 0 1 0 5
	1 1 1.00 60.00 79.50
	 2565 3240 2565 2970 2565 2835 2655 2835 3015 2835
	 0.000 1.000 1.000 1.000 0.000
3 0 0 2 4 7 10 -1 -1 0.000 0 1 0 5
	1 1 1.00 60.00 79.50
	 2565 3240 2565 2970 2565 2835 2475 2835 2115 2835
	 0.000 1.000 1.000 1.000 0.000
3 0 0 2 4 7 10 -1 -1 0.000 0 1 0 5
	1 1 1.00 60.00 79.50
	 3735 3240 3735 2970 3735 2835 3825 2835 4185 2835
	 0.000 1.000 1.000 1.000 0.000
3 0 0 2 4 7 10 -1 -1 0.000 0 1 0 5
	1 1 1.00 60.00 79.50
	 3735 3240 3735 2970 3735 2835 3645 2835 3285 2835
	 0.000 1.000 1.000 1.000 0.000
3 0 0 2 4 7 10 -1 -1 0.000 0 1 0 5
	1 1 1.00 60.00 79.50
	 3285 2250 3285 2610 3285 2745 3195 2745 2700 2745
	 0.000 1.000 1.000 1.000 0.000
3 0 0 2 4 7 10 -1 -1 0.000 0 1 0 5
	1 1 1.00 60.00 79.50
	 3285 2250 3285 2610 3285 2745 3375 2745 3870 2745
	 0.000 1.000 1.000 1.000 0.000
4 1 -1 8 0 16 7 0.0000 4 90 450 4950 3735 226.2.2.2\001
4 1 -1 8 0 16 7 0.0000 4 90 930 3780 3735 225.1.1.1/226.2.2.2\001
4 1 -1 8 0 16 7 0.0000 4 90 450 2610 3735 225.1.1.1\001
4 2 -1 8 0 16 9 0.0000 4 120 105 4725 3375 C\001
4 2 -1 8 0 16 9 0.0000 4 120 105 3555 3375 B\001
4 2 -1 8 0 16 9 0.0000 4 120 105 2385 3375 A\001
4 2 -1 8 0 16 9 0.0000 4 120 105 3060 2205 R\001
4 2 -1 8 0 16 7 0.0000 4 120 840 3240 2520 (1) R->224.0.0.1\001
4 2 -1 8 0 16 7 0.0000 4 120 675 3240 2670 Query 0.0.0.0\001
4 2 -1 8 0 16 7 0.0000 4 120 435 4860 3060 (4) rien !\001
4 2 -1 8 0 16 7 0.0000 4 120 825 3690 2970 (3) B->226.2.2.2\001
4 2 -1 8 0 16 7 0.0000 4 120 825 3690 3120 Report 226.2.2.2\001
4 2 -1 8 0 16 7 0.0000 4 120 825 2520 3120 Report 225.1.1.1\001
4 2 -1 8 0 16 7 0.0000 4 120 825 2520 2970 (2) A->225.1.1.1\001
