#FIG 3.2  Produced by xfig version 3.2.6a
Landscape
Center
Metric
A4
100.00
Single
-2
1200 2
1 3 0 1 0 31 60 -1 36 0.000 1 0.0000 2700 2250 1802 1802 2700 2250 4502 2250
1 3 0 1 0 0 70 -1 20 0.000 1 0.0000 2743 2295 1802 1802 2743 2295 4545 2295
1 3 0 1 0 31 57 -1 18 0.000 1 0.0000 2700 2250 452 452 2700 2250 3152 2250
1 3 0 1 0 31 58 -1 24 0.000 1 0.0000 2700 2250 900 900 2700 2250 3600 2250
1 3 0 1 0 31 59 -1 30 0.000 1 0.0000 2700 2250 1350 1350 2700 2250 4050 2250
2 1 1 1 0 7 50 -1 -1 4.000 0 0 -1 1 0 2
	1 1 1.00 60.00 120.00
	 4635 2250 2790 2250
2 1 1 1 0 7 50 -1 -1 4.000 0 0 -1 1 0 2
	1 1 1.00 60.00 120.00
	 4635 3825 2790 3825
2 1 1 1 0 7 50 -1 -1 4.000 0 0 -1 1 0 2
	1 1 1.00 60.00 120.00
	 4635 2925 2790 2925
2 1 1 1 0 7 50 -1 -1 4.000 0 0 -1 1 0 2
	1 1 1.00 60.00 120.00
	 4590 3375 2790 3375
4 1 0 50 -1 16 10 0.0000 4 120 90 2700 2295 0\001
4 1 0 50 -1 16 10 0.0000 4 120 90 2700 2970 1\001
4 1 0 50 -1 16 10 0.0000 4 120 90 2700 3420 2\001
4 1 0 50 -1 16 10 0.0000 4 120 90 2700 3870 3\001
4 0 0 50 -1 16 10 0.0000 4 150 480 4680 2295 Noyau\001
4 0 0 50 -1 16 10 0.0000 4 165 945 4680 3780 Programmes\001
4 0 0 50 -1 16 10 0.0000 4 120 780 4680 3975 utilisateurs\001
4 0 0 50 -1 16 10 0.0000 4 120 810 4680 2970 non utilis\351s\001
4 0 0 50 -1 16 10 0.0000 4 150 555 4680 3420 par xv6\001
