#FIG 3.2  Produced by xfig version 3.2.5c
Portrait
Center
Metric
A4      
100.00
Single
-2
1200 2
6 45 1215 540 1620
2 2 0 1 -1 -1 50 0 -1 0.000 0 0 0 0 0 5
	 540 1530 540 1215 135 1215 135 1530 540 1530
2 1 0 1 -1 -1 50 0 -1 0.000 0 0 -1 0 0 4
	 135 1530 45 1620 450 1620 540 1530
-6
6 765 1125 1125 1755
1 1 0 1 0 7 50 -1 -1 0.000 1 0.0000 945 1215 180 90 945 1215 1125 1215
1 1 0 1 0 7 52 -1 -1 0.000 1 0.0000 945 1665 180 90 945 1665 1125 1665
2 2 0 1 7 7 51 -1 62 0.000 0 0 -1 0 0 5
	 765 1215 1125 1215 1125 1665 765 1665 765 1215
2 1 0 1 0 7 50 -1 -1 0.000 0 0 -1 0 0 2
	 765 1215 765 1665
2 1 0 1 0 7 50 -1 -1 0.000 0 0 -1 0 0 2
	 1125 1215 1125 1665
-6
6 2970 1125 3330 1755
1 1 0 1 0 7 50 -1 -1 0.000 1 0.0000 3150 1215 180 90 3150 1215 3330 1215
1 1 0 1 0 7 52 -1 -1 0.000 1 0.0000 3150 1665 180 90 3150 1665 3330 1665
2 2 0 1 7 7 51 -1 62 0.000 0 0 -1 0 0 5
	 2970 1215 3330 1215 3330 1665 2970 1665 2970 1215
2 1 0 1 0 7 50 -1 -1 0.000 0 0 -1 0 0 2
	 2970 1215 2970 1665
2 1 0 1 0 7 50 -1 -1 0.000 0 0 -1 0 0 2
	 3330 1215 3330 1665
-6
2 1 0 1 -1 -1 50 0 -1 0.000 0 0 -1 1 0 2
	1 1 1.00 45.00 90.00
	 1170 405 900 405
2 4 0 1 -1 -1 50 0 -1 0.000 0 0 7 0 0 5
	 855 540 855 270 495 270 495 540 855 540
2 4 0 1 -1 -1 50 0 -1 0.000 0 0 7 0 0 5
	 1530 540 1530 270 1170 270 1170 540 1530 540
2 2 0 1 -1 -1 50 0 -1 0.000 0 0 0 0 0 5
	 1575 900 1575 225 450 225 450 900 1575 900
2 1 0 1 -1 -1 50 0 -1 0.000 0 0 -1 1 0 2
	1 1 1.00 45.00 90.00
	 990 720 1215 540
2 1 0 1 -1 -1 50 0 -1 0.000 0 0 -1 1 0 2
	1 1 1.00 45.00 90.00
	 1305 540 1170 720
2 1 0 1 -1 -1 50 0 -1 0.000 0 0 -1 1 0 2
	1 1 1.00 45.00 90.00
	 1350 720 1350 540
2 1 0 1 -1 -1 50 0 -1 0.000 0 0 -1 1 0 2
	1 1 1.00 45.00 90.00
	 630 540 585 720
2 1 0 1 -1 -1 50 0 -1 0.000 0 0 -1 0 0 2
	 450 720 1575 720
2 1 0 1 -1 -1 50 0 -1 0.000 0 0 -1 1 0 2
	1 1 1.00 45.00 90.00
	 495 900 360 1170
2 1 0 1 -1 -1 50 0 -1 0.000 0 0 -1 1 0 2
	1 1 1.00 45.00 90.00
	 450 1215 810 945
2 1 0 1 -1 -1 50 0 -1 0.000 0 0 -1 1 0 2
	1 1 1.00 45.00 90.00
	 1080 900 945 1080
2 2 0 1 -1 -1 50 0 -1 0.000 0 0 0 0 0 5
	 3375 900 3375 225 2250 225 2250 900 3375 900
2 1 0 1 -1 -1 50 0 -1 0.000 0 0 -1 0 0 2
	 2250 720 3375 720
2 1 0 1 -1 -1 50 0 -1 0.000 0 0 -1 1 0 2
	1 1 1.00 45.00 90.00
	 2475 540 2475 720
2 1 0 1 -1 -1 50 0 -1 0.000 0 0 -1 1 0 2
	1 1 1.00 45.00 90.00
	 2970 495 2700 495
2 1 0 1 -1 -1 50 0 -1 0.000 0 0 -1 1 0 2
	1 1 1.00 45.00 90.00
	 2970 405 2700 405
2 1 0 1 -1 -1 50 0 -1 0.000 0 0 -1 0 1 2
	1 1 1.00 45.00 90.00
	 2970 315 2700 315
2 4 0 1 -1 -1 50 0 -1 0.000 0 0 7 0 0 5
	 3330 540 3330 270 2970 270 2970 540 3330 540
2 1 0 1 -1 -1 50 0 -1 0.000 0 0 -1 1 0 2
	1 1 1.00 45.00 90.00
	 3150 720 3150 540
2 4 0 1 -1 -1 50 0 -1 0.000 0 0 7 0 0 5
	 2655 540 2655 270 2295 270 2295 540 2655 540
2 1 0 1 -1 -1 50 0 -1 0.000 0 0 -1 1 0 2
	1 1 1.00 45.00 90.00
	 3150 1125 3150 945
2 1 0 1 -1 -1 50 0 -1 0.000 0 0 -1 1 0 3
	1 1 1.00 45.00 90.00
	 2475 900 2475 1260 2340 1395
2 1 0 1 -1 -1 50 0 -1 0.000 0 0 -1 1 0 3
	1 1 1.00 45.00 90.00
	 1800 1620 1440 1350 1350 900
3 1 0 1 -1 7 49 0 20 0.000 0 0 0 9
	 1665 1485 2070 1395 2430 1395 2700 1710 2520 1935 2160 2205
	 1755 2070 1485 1935 1440 1665
	 1.000 1.000 1.000 1.000 1.000 1.000 1.000 1.000
	 1.000
4 1 -1 50 0 16 8 0.0000 4 75 180 675 450 wc\001
4 1 -1 50 0 16 8 0.0000 4 105 195 1350 450 rsh\001
4 1 -1 50 0 16 8 0.0000 4 120 540 1035 855 systeme\001
4 1 -1 50 0 16 8 0.0000 4 120 540 2835 855 systeme\001
4 1 -1 50 0 16 8 0.0000 4 105 270 2475 450 rshd\001
4 1 -1 50 0 16 8 0.0000 4 105 105 3150 450 ls\001
4 1 -1 48 0 17 12 0.0000 4 150 660 2070 1845 Internet\001
