#FIG 3.2  Produced by xfig version 3.2.5-alpha5
Portrait
Center
Metric
A4      
100.00
Single
-3
1200 2
0 32 #7c7c7c
0 33 #c9aaa1
0 34 #8e8e8e
0 35 #808080
0 36 #b6b6b6
0 37 #ac9478
6 360 495 540 2475
2 1 0 1 0 7 50 -1 -1 0.000 0 0 -1 1 0 2
	1 1 1.00 60.00 120.00
	 450 675 450 2475
4 1 0 50 -1 16 10 0.0000 6 120 120 450 630 C\001
-6
6 2160 495 2340 2475
2 1 0 1 0 7 50 -1 -1 0.000 0 0 -1 1 0 2
	1 1 1.00 60.00 120.00
	 2250 675 2250 2475
4 1 0 50 -1 16 10 0.0000 6 120 105 2250 630 S\001
-6
2 3 0 1 0 7 50 -1 -1 0.000 0 0 -1 0 0 11
	 675 1080 495 1305 675 1530 675 1440 2025 1440 2025 1530
	 2205 1305 2025 1080 2025 1170 675 1170 675 1080
4 1 0 50 -1 16 8 0.0000 6 135 915 1350 990 \351change de clefs\001
4 1 0 50 -1 16 8 0.0000 6 105 780 1350 1125 Diffie-Hellman\001
