#FIG 3.2
Portrait
Center
Metric
A4      
100.00
Single
-2
1200 2
6 1755 3150 3645 3285
6 1755 3150 3645 3285
4 1 -1 0 0 16 10 0.0000 4 120 60 3600 3285 t\001
4 1 -1 0 0 16 10 0.0000 4 120 60 1800 3285 t\001
-6
-6
6 2070 1485 3105 1890
4 2 0 50 0 20 8 0.0000 6 105 630 3105 1620 IAC DONT Auth\001
4 2 0 50 0 20 8 0.0000 6 120 1005 3105 1755 IAC WONT Encryption\001
4 2 0 50 0 20 8 0.0000 6 105 510 3105 1890 IAC DO Echo\001
-6
2 1 0 1 -1 -1 0 0 -1 0.000 0 0 -1 1 0 2
	1 1 1.00 45.00 90.00
	 1845 1125 3555 1575
2 1 0 1 -1 -1 0 0 -1 0.000 0 0 -1 1 0 2
	1 1 1.00 45.00 90.00
	 3555 1800 1845 2250
2 1 0 1 -1 -1 0 0 -1 0.000 0 0 -1 1 0 2
	1 1 1.00 45.00 90.00
	 1800 900 1800 3150
2 1 0 1 -1 -1 0 0 -1 0.000 0 0 7 1 0 2
	1 1 1.00 45.00 90.00
	 3600 900 3600 3150
2 1 0 1 -1 -1 0 0 -1 0.000 0 0 -1 1 0 2
	1 1 1.00 45.00 90.00
	 1845 2482 3555 2932
4 0 0 50 0 20 8 0.0000 6 120 840 2025 1125 IAC DO Encryption\001
4 0 0 50 0 20 8 0.0000 6 105 585 2025 990 IAC WILL Auth\001
4 0 0 50 0 20 8 0.0000 6 105 615 2025 2520 IAC WILL Echo\001
