$ stat /etc/passwd
File: /etc/passwd
Size: 2668         Blocks: 8      IO Block: 4096   regular file
Device: 10302h/66306d   Inode: 29754519    Links: 1
Access: (0644/-rw-r--r--)  Uid: (  0/  root)   Gid: (  0/  root)
Access: 2019-05-08 17:55:01.459332732 +0200
Modify: 2019-04-19 02:35:17.252208484 +0200
Change: 2019-04-19 02:35:17.256199815 +0200
