> ls -l /etc/passwd
-rw-r--r-- 1 root root 2942 Nov 14 17:32 /etc/passwd

> stat /etc/passwd
File: /etc/passwd
Size: 2942     Blocks: 8    IO Block: 4096   regular file
Device: 10302h/66306d	Inode: 29755929    Links: 1
Access: (0644/-rw-r--r--)  Uid: (0/root)   Gid: (0/root)
Access: 2021-01-30 10:55:01.325576677 +0100
Modify: 2020-11-14 17:32:30.315736549 +0100
Change: 2020-11-14 17:32:30.323736606 +0100
 Birth: 2020-11-14 17:32:30.315736549 +0100
