#FIG 3.2  Produced by xfig version 3.2.5c
Landscape
Center
Metric
A4      
100.00
Single
-2
1200 2
2 1 1 1 0 7 51 -1 -1 4.000 0 0 7 1 0 2
	1 1 1.00 60.00 120.00
	 900 900 3600 900
2 1 1 1 0 7 51 -1 -1 4.000 0 0 7 1 0 2
	1 1 1.00 60.00 120.00
	 900 1350 3600 1350
2 1 0 4 13 7 50 -1 -1 10.000 0 0 7 0 0 2
	 900 900 1800 900
2 1 0 4 13 7 50 -1 -1 10.000 0 0 7 0 0 2
	 1800 1350 2520 1350
2 1 0 4 13 7 50 -1 -1 10.000 0 0 7 0 0 2
	 2520 900 3375 900
4 2 0 50 -1 16 8 0.0000 4 105 705 855 945 Processor\001
4 2 0 50 -1 16 8 0.0000 4 135 435 855 1395 Disk\001
4 1 4 50 -1 17 7 0.0000 4 105 585 2160 810 idle time\001
4 1 4 50 -1 17 7 0.0000 4 105 585 1350 1260 idle time\001
4 1 4 50 -1 17 7 0.0000 4 105 585 2970 1260 idle time\001
4 1 1 50 -1 17 7 0.0000 4 90 300 1350 810 computing\001
4 1 1 50 -1 17 7 0.0000 4 90 345 2160 1260 reading\001
4 1 1 50 -1 17 7 0.0000 4 90 300 2970 810 computing\001
4 0 0 50 -1 17 7 0.0000 4 75 30 3600 855 t\001
4 0 0 50 -1 17 7 0.0000 4 75 30 3600 1305 t\001
